<svg xmlns="http://www.w3.org/2000/svg" width="156" height="156" viewBox="0 0 156 156">
  <g id="Group_1942" data-name="Group 1942" transform="translate(-382 -1248)">
    <circle id="Ellipse_174" data-name="Ellipse 174" cx="78" cy="78" r="78" transform="translate(382 1248)" fill="#aeccb1"/>
    <g id="Group_1820" data-name="Group 1820" transform="translate(-2331.476 -222.743)">
      <path id="Path_2059" data-name="Path 2059" d="M2826.115,1610.29a37.119,37.119,0,0,0-.833-7.918,2.362,2.362,0,1,0-4.618.995,32.477,32.477,0,0,1,.65,4.613h-29.958v-32.4a2.688,2.688,0,0,0-2.439-2.609h-.045a37.24,37.24,0,0,0-.129,74.479,2.377,2.377,0,0,0,.252.014,2.416,2.416,0,0,0,.262-.015,37.21,37.21,0,0,0,36.857-37.034c0-.025,0-.049,0-.074S2826.115,1610.307,2826.115,1610.29Zm-11.419,19.685a63.642,63.642,0,0,0-7.725-2.838,68.015,68.015,0,0,0,2.091-14.432h12.231A32.675,32.675,0,0,1,2814.7,1629.975Zm-10.362-17.271a63.285,63.285,0,0,1-1.939,13.259,63.9,63.9,0,0,0-11.038-1.415V1612.7Zm-12.977,29.931v-13.387a58.521,58.521,0,0,1,9.7,1.231,63.555,63.555,0,0,1-5.2,11.5A32.59,32.59,0,0,1,2791.356,1642.635ZM2782,1642a63.988,63.988,0,0,1-5.13-11.558,58.5,58.5,0,0,1,9.758-1.2v13.413A32.7,32.7,0,0,1,2782,1642Zm-18.961-12.02a32.646,32.646,0,0,1-6.59-17.273h12.474a69.08,69.08,0,0,0,2.046,14.373A63.508,63.508,0,0,0,2763.042,1629.977Zm10.634-17.273h12.956v11.835a63.878,63.878,0,0,0-11.07,1.376A64.592,64.592,0,0,1,2773.677,1612.7Zm-.011-4.724a64.652,64.652,0,0,1,1.9-13.458,63.883,63.883,0,0,0,11.07,1.376v12.081Zm8.346-29.549a32.364,32.364,0,0,1,4.621-.655v13.4a59.116,59.116,0,0,1-9.748-1.2A63.964,63.964,0,0,1,2782.012,1578.43Zm-9.729,10.392a58.964,58.964,0,0,1-5.91-2.075,32.7,32.7,0,0,1,9.21-6.2A69.085,69.085,0,0,0,2772.283,1588.822Zm-9.239,1.639a63.578,63.578,0,0,0,7.93,2.9,69.066,69.066,0,0,0-2.056,14.619h-12.489a32.411,32.411,0,0,1,6.615-17.518Zm3.318,43.231a59.285,59.285,0,0,1,5.916-2.094,69.05,69.05,0,0,0,3.309,8.3,32.385,32.385,0,0,1-7.164-4.391Q2767.347,1634.64,2766.362,1633.692Zm39.551,4.225a32.448,32.448,0,0,1-3.575,1.9,68.337,68.337,0,0,0,3.3-8.168,59.371,59.371,0,0,1,5.734,2.039A32.36,32.36,0,0,1,2805.914,1637.918Z" transform="translate(0 -57.289)" fill="#fff"/>
      <path id="Path_2060" data-name="Path 2060" d="M3208.641,1615.573h4.93a2.362,2.362,0,0,0,0-4.725h-4.93a2.362,2.362,0,0,0,0,4.725Z" transform="translate(-393.28 -90.053)" fill="#fff"/>
      <path id="Path_2061" data-name="Path 2061" d="M3299.7,1615.573h4.93a2.362,2.362,0,0,0,0-4.725h-4.93a2.362,2.362,0,0,0,0,4.725Z" transform="translate(-472.044 -90.053)" fill="#fff"/>
      <path id="Path_2062" data-name="Path 2062" d="M3109.93,1513.665a6.96,6.96,0,0,0-6.935-6.917c-.037,0-.073-.005-.11-.005h-34.761a6.465,6.465,0,0,0-5.3,3.214,10.272,10.272,0,0,0-1.748,5.477c0,.026,0,.051,0,.077s0,.051,0,.077v19.723a2.348,2.348,0,0,0,.466,1.4c.955,2.371,3.313,3.843,6.456,3.843.021,0,.041,0,.062,0s.041,0,.062,0h.021l4.166,8.3a2.362,2.362,0,0,0,2.09,1.3h.022a2.363,2.363,0,0,0,2.092-1.265l4.378-8.343h21.993c.042,0,.084,0,.126-.006a7.176,7.176,0,0,0,6.913-6.915c0-.042.006-.083.006-.125v-19.723c0-.021,0-.041,0-.062S3109.93,1513.686,3109.93,1513.665Zm-35.46,28.964-2.755-5.493c0-.009-.01-.017-.015-.026-.022-.042-.046-.084-.071-.125s-.033-.056-.051-.083-.045-.064-.068-.1-.047-.065-.072-.1-.04-.045-.06-.068-.063-.072-.1-.105c-.018-.018-.037-.034-.055-.052-.037-.035-.074-.07-.113-.1-.021-.018-.043-.033-.065-.05-.038-.029-.075-.059-.114-.085s-.061-.038-.091-.057-.065-.042-.1-.06-.08-.041-.121-.061-.053-.027-.08-.039c-.044-.019-.09-.036-.135-.052l-.077-.028c-.043-.014-.087-.025-.132-.037s-.062-.017-.093-.024-.076-.014-.114-.02-.081-.014-.121-.019l-.093-.008c-.049,0-.1-.007-.148-.007h-1.507c-.021,0-.041,0-.062,0s-.041,0-.062,0c-2.2,0-2.2-1.1-2.2-1.63v-18.616c0-.026,0-.051,0-.077s0-.051,0-.077c0-1.8,1.426-3.966,2.322-3.966h34.636a2.264,2.264,0,0,1,2.445,2.2c0,.021,0,.041,0,.062s0,.041,0,.062v19.6a2.448,2.448,0,0,1-2.445,2.445h-23.306c-.061,0-.122,0-.183.009l-.057,0c-.048.005-.1.014-.144.022-.03,0-.061.008-.09.014l-.036.009a2.326,2.326,0,0,0-.549.2l-.055.027c-.024.013-.046.028-.07.042a2.336,2.336,0,0,0-.7.629c-.024.031-.048.062-.07.095s-.024.041-.037.061c-.03.048-.06.1-.086.146l-.005.009Z" transform="translate(-267.678 0)" fill="#fff"/>
      <path id="Path_2063" data-name="Path 2063" d="M3125.386,1613.211a2.362,2.362,0,0,0-2.362-2.362h-4.93a2.362,2.362,0,0,0,0,4.725h4.93A2.362,2.362,0,0,0,3125.386,1613.211Z" transform="translate(-314.955 -90.053)" fill="#fff"/>
    </g>
  </g>
</svg>
