<svg xmlns="http://www.w3.org/2000/svg" width="72.006" height="73.314" viewBox="0 0 72.006 73.314">
  <g id="Group_2522" data-name="Group 2522" transform="translate(-13.997 -15.843)">
    <path id="Path_3736" data-name="Path 3736" d="M42.856,15.843c-5.221,0-11.3,6.076-11.3,12.257,0,5.448,2.654,10.791,7.647,10.791,5.413,0,8.8-4.191,8.8-9.429C48.007,24.643,47.064,15.843,42.856,15.843Z" fill="#213f4e"/>
    <path id="Path_3737" data-name="Path 3737" d="M21.8,24.776C19.025,24.776,14,29.438,14,35.462c0,4.679,3.859,9.533,8.747,9.533,3.562,0,5.239-4.4,5.239-9.848S24.683,24.776,21.8,24.776Z" fill="#213f4e"/>
    <path id="Path_3738" data-name="Path 3738" d="M58.008,15.843c5.221,0,11.3,6.076,11.3,12.257,0,5.448-2.654,10.791-7.648,10.791-5.413,0-8.8-4.191-8.8-9.429C52.857,24.643,53.8,15.843,58.008,15.843Z" fill="#213f4e"/>
    <path id="Path_3739" data-name="Path 3739" d="M78.2,24.776c2.777,0,7.805,4.662,7.805,10.686,0,4.679-3.859,9.533-8.747,9.533-3.562,0-5.239-4.4-5.239-9.848S75.317,24.776,78.2,24.776Z" fill="#213f4e"/>
    <path id="Path_3740" data-name="Path 3740" d="M76.685,61.35l-.015,0a15.808,15.808,0,0,0-27-14.408,15.8,15.8,0,0,0-27,14.408l-.015,0c.051.206.116.406.172.609.051.183.1.367.155.547,5.032,16.879,26.687,26.651,26.687,26.651s21.654-9.772,26.686-26.651c.058-.18.1-.364.155-.547C76.569,61.756,76.635,61.556,76.685,61.35Z" fill="#213f4e"/>
  </g>
</svg>
