<svg xmlns="http://www.w3.org/2000/svg" width="48.808" height="59.605" viewBox="0 0 48.808 59.605">
  <g id="Artwork_6" data-name="Artwork 6" transform="translate(-653.051 270.225)">
    <g id="Group_2536" data-name="Group 2536" transform="translate(653.051 -270.225)">
      <g id="Group_2535" data-name="Group 2535" transform="translate(0 0)">
        <path id="Path_3750" data-name="Path 3750" d="M677.454-210.62a.97.97,0,0,1-.636-.238l-23.435-20.381a.968.968,0,0,1-.272-1.07.969.969,0,0,1,.907-.629h4.459v-36.32a.968.968,0,0,1,.968-.968h36.017a.968.968,0,0,1,.968.968v36.32h4.459a.968.968,0,0,1,.907.629.968.968,0,0,1-.272,1.07l-23.436,20.381a.967.967,0,0,1-.635.238M656.607-231l20.847,18.13L698.3-231h-2.839a.968.968,0,0,1-.968-.968v-36.32H660.414v36.32a.968.968,0,0,1-.968.968Z" transform="translate(-653.051 270.225)" fill="#d26546"/>
        <path id="Path_3751" data-name="Path 3751" d="M687.032-237.684a5.373,5.373,0,0,1-5.466,5.3,5.373,5.373,0,0,1-5.465-5.3,5.373,5.373,0,0,1,5.465-5.3,5.373,5.373,0,0,1,5.466,5.3m10.766-5.134.166.166L682.726-219.8l-.331.166h-4.14l-.166-.166,15.238-22.856.332-.166Zm-17.954,5.134a1.736,1.736,0,0,0,1.722,1.822,1.735,1.735,0,0,0,1.723-1.822,1.735,1.735,0,0,0-1.723-1.821,1.735,1.735,0,0,0-1.722,1.821m20.108,12.92a5.374,5.374,0,0,1-5.466,5.3,5.374,5.374,0,0,1-5.466-5.3,5.373,5.373,0,0,1,5.466-5.3,5.374,5.374,0,0,1,5.466,5.3m-7.189,0a1.735,1.735,0,0,0,1.723,1.822,1.735,1.735,0,0,0,1.723-1.822,1.736,1.736,0,0,0-1.723-1.822,1.735,1.735,0,0,0-1.723,1.822" transform="translate(-663.622 257.731)" fill="#d26546"/>
      </g>
    </g>
  </g>
</svg>
